digraph {

subgraph cluster_node {         // perrepo
    label="Container Linux";    // perrepo
    color=grey;                 // perrepo

    docker    [color=yellow, style=filled, label="Docker"]
    iptables  [color=yellow, style=filled, label="IP Tables"] 
    container [color=yellow, style=filled, label="Container"]
    kernel    [color=yellow, style=filled, label="Kernel / OS"]
    systemd   [color=yellow, style=filled, label="Systemd"]
    nodeports [color=yellow, style=filled, label="Host Network"]

    systemd -> docker [label="starts"]
}   // perrepo

//subgraph cluster_hoster {
//    label="Hoster Datacenter";
//    color=grey;

    dhcp    [color=red, label="DHCP Server"]
    ntp     [color=red, label="Time Server"]
    vswitch [color=red, label="vSwitch / VLAN"]
//}


    systemd -> ntp           [label="ensures node time\nis in sync"]
    docker -> kernel         [label="sets up concept\nof container"]
    kernel -> container      [label="limits scope\nof a userland\nprocess"]
    kernel -> dhcp           [label="gets IP from"]
    kernel -> vswitch        [label="connects to via\ninternal IP"]
    container -> iptables    [label="sends network\ntraffic via"]
}